…
``` r
stars_data <- "~/RStudioProjects/STA130 Capstone/Data/STA130_APOGEE.h5" %>% h5read("logg") %>% as_tibble() %>% rename(surface_gravity = value)

stars_data$eff_temp <- "~/RStudioProjects/STA130 Capstone/Data/STA130_APOGEE.h5" %>% h5read("teff")
stars_data$o_h <- "~/RStudioProjects/STA130 Capstone/Data/STA130_APOGEE.h5" %>% h5read("o_h")

stars_data <- stars_data %>% na.omit()
stars_data
```

    ## # A tibble: 99,705 × 3
    ##    surface_gravity  eff_temp       o_h
    ##              <dbl> <dbl[1d]> <dbl[1d]>
    ##  1            3.46     5031.   -0.0466
    ##  2            2.48     4976.   -0.318 
    ##  3            2.53     4982.   -0.342 
    ##  4            1.28     4074.   -0.185 
    ##  5            2.58     4757.   -0.0824
    ##  6            2.53     4669.   -0.0716
    ##  7            2.39     4661.    0.111 
    ##  8            2.23     4524.    0.0535
    ##  9            1.59     4148.    0.0605
    ## 10            2.48     4517.    0.117 
    ## # ℹ 99,695 more rows
…
